{
	"images": [

		{
			"name": "albedoImage",
			"format": "R8G8B8A8unorm"
		},
		{
			"name": "depthImage",
			"format": "D32Sfloat"
		}

	],

	"attachments": [{
			"name": "albedoAttachment",
			"imageIndex": 0,
			"clearValue": [0, 0, 0, 1]
		},
		{
			"name": "depthAttachment",
			"imageIndex": 1,
			"clearValue": [1, 0]
		}
	],

	"samplers": [

		{
			"attachmentIndex": 0
		}

	],

	"renderPasses": [
        {
		    "name": "firstPass",
		    "colorAttachments": [0],
		    "depthAttachment": 1
	    }
    ],

	"swapchain": {
		"name": "swapchainPass",
		"samplers": [0]
	}
}
